CAPTION;PRICE;INFO
90min;24500;hinta sentteinä
60min;22000;hinta sentteinä
90min2;11000;hinta sentteinä
60min2;11000;hinta sentteinä
kertamaksu;24500;hinta sentteinä
perhesirkus60_2hlö;26000;hinta sentteinä
perhesirkus60_3hlö;30000;hinta sentteinä
perhesirkus60_4hlö;34000;hinta sentteinä
perhesirkus90_2hlö;28000;hinta sentteinä
perhesirkus90_3hlö;32000;hinta sentteinä
perhesirkus90_4hlö;36000;hinta sentteinä
aloitusviikko;4;viikkonumero
lukukaudenmitta;18;viikkoa
